{
    "apellidos": "Pppp",
    "celular": "123546",
    "ci": "154",
    "telefono": "123546",
    "direccion": "Nuevo",
    "email": "2@2.com",
    "estado": "NO ENVIADO",
    "fechanacimiento": "2014-11-17",
    "id": -1,
    "nombre": "Aaaa",
    "numero": "f7574e9a-a3a8-4a3b-a748-16df0b0dda81",
    "sexo": "Hombre",
    "codigo": 0
}